{
	"info": {
		"_postman_id": "865514d6-e8fa-4c39-9927-f57d99b0b28b",
		"name": "GHO OData API",
		"schema": "https://schema.getpostman.com/json/collection/v2.1.0/collection.json"
	},
	"item": [
		{
			"name": "Resume Dimensions",
			"request": {
				"method": "GET",
				"header": [],
				"url": {
					"raw": "https://ghoapi.azureedge.net/api/Dimension/",
					"protocol": "https",
					"host": [
						"ghoapi",
						"azureedge",
						"net"
					],
					"path": [
						"api",
						"Dimension",
						""
					]
				}
			},
			"response": []
		},
		{
			"name": "Resume Indicators",
			"request": {
				"method": "GET",
				"header": [],
				"url": {
					"raw": "https://ghoapi.azureedge.net/api/Indicator",
					"protocol": "https",
					"host": [
						"ghoapi",
						"azureedge",
						"net"
					],
					"path": [
						"api",
						"Indicator"
					]
				}
			},
			"response": []
		},
		{
			"name": "Vietnam Newborn Mortality",
			"event": [
				{
					"listen": "prerequest",
					"script": {
						"id": "94251d8b-3dac-428e-b2d5-c366952e0ac9",
						"exec": [
							""
						],
						"type": "text/javascript"
					}
				},
				{
					"listen": "test",
					"script": {
						"id": "bef9f571-b013-4922-b2bb-ed6a0a300904",
						"exec": [
							"// Access the WHO response data",
							"const response = pm.response.json();",
							"",
							"var template = `",
							"    <table bgcolor=\"#FFFFFF\">",
							"        <tr>",
							"            <th>Annee</th>",
							"            <th>Age</th>",
							"            <th>Cause</th>",
							"        </tr>",
							"",
							"        {{#each response.value}}",
							"            <tr>",
							"                <td>{{TimeDim}}</td>",
							"                <td>{{Dim1}}</td>",
							"                <td>{{Dim2}}</td>",
							"            </tr>",
							"        {{/each}}",
							"    </table>",
							"`;",
							"",
							"// Set-up visualization",
							"pm.visualizer.set(template, {",
							"    response: pm.response.json()",
							"});"
						],
						"type": "text/javascript"
					}
				}
			],
			"request": {
				"method": "GET",
				"header": [],
				"url": {
					"raw": "https://ghoapi.azureedge.net/api/MORT_100?$select=SpatialDim, TimeDim, Dim1, Dim2, Value, NumericValue, Date&$filter=SpatialDim eq 'VNM'",
					"protocol": "https",
					"host": [
						"ghoapi",
						"azureedge",
						"net"
					],
					"path": [
						"api",
						"MORT_100"
					],
					"query": [
						{
							"key": "$select",
							"value": "SpatialDim, TimeDim, Dim1, Dim2, Value, NumericValue, Date"
						},
						{
							"key": "$filter",
							"value": "SpatialDim eq 'VNM'"
						}
					]
				}
			},
			"response": []
		},
		{
			"name": "France Newborn Mortality",
			"event": [
				{
					"listen": "prerequest",
					"script": {
						"id": "b6c62bf5-ef64-4388-b500-1ea488c13943",
						"exec": [
							""
						],
						"type": "text/javascript"
					}
				},
				{
					"listen": "test",
					"script": {
						"id": "0b0684ff-41c8-4ae7-9d32-a9326c889e61",
						"exec": [
							"// Access the WHO response data",
							"const response = pm.response.json();",
							"",
							"var template = `",
							"    <table bgcolor=\"#FFFFFF\">",
							"        <tr>",
							"            <th>Annee</th>",
							"            <th>Age</th>",
							"            <th>Cause</th>",
							"        </tr>",
							"",
							"        {{#each response.value}}",
							"            <tr>",
							"                <td>{{TimeDim}}</td>",
							"                <td>{{Dim1}}</td>",
							"                <td>{{Dim2}}</td>",
							"            </tr>",
							"        {{/each}}",
							"    </table>",
							"`;",
							"",
							"// Set-up visualization",
							"pm.visualizer.set(template, {",
							"    response: pm.response.json()",
							"});"
						],
						"type": "text/javascript"
					}
				}
			],
			"request": {
				"method": "GET",
				"header": [],
				"url": {
					"raw": "https://ghoapi.azureedge.net/api/MORT_100?$select=SpatialDim, TimeDim, Dim1, Dim2, Value, NumericValue, Date",
					"protocol": "https",
					"host": [
						"ghoapi",
						"azureedge",
						"net"
					],
					"path": [
						"api",
						"MORT_100"
					],
					"query": [
						{
							"key": "$select",
							"value": "SpatialDim, TimeDim, Dim1, Dim2, Value, NumericValue, Date"
						}
					]
				}
			},
			"response": []
		}
	],
	"event": [
		{
			"listen": "prerequest",
			"script": {
				"id": "9536f469-39be-4977-b319-4ea0b57be4c0",
				"type": "text/javascript",
				"exec": [
					""
				]
			}
		},
		{
			"listen": "test",
			"script": {
				"id": "e7a49234-a289-4718-be7b-2718042163b5",
				"type": "text/javascript",
				"exec": [
					""
				]
			}
		}
	],
	"variable": [
		{
			"id": "fdf751df-60a9-4fd0-a7a1-afffe5be12a9",
			"key": "dimensionCode",
			"value": "",
			"type": "string"
		},
		{
			"id": "d3e65ab6-7471-4012-b6f7-8c4cb0b768d8",
			"key": "indicatorCode",
			"value": "",
			"type": "string"
		}
	],
	"protocolProfileBehavior": {}
}